Library/Bee/artifacts/mvdfrm/UnityEditor.TestRunner.ref.dll_A805A84D9B0C22D9.mvfrm
Library/Bee/artifacts/mvdfrm/UnityEditor.UI.ref.dll_0174E068A5FA251B.mvfrm
Library/Bee/artifacts/mvdfrm/UnityEngine.TestRunner.ref.dll_7423F2FBC6CF80C4.mvfrm
Library/Bee/artifacts/mvdfrm/UnityEngine.UI.ref.dll_BDDAB6C3AC1C4D86.mvfrm
Library/Bee/artifacts/mvdfrm/UnityEditor.Graphs.dll_91800ABCE0F04D25.mvfrm
Library/Bee/artifacts/mvdfrm/UnityEditor.CoreModule.dll_0118DC1103BF75F3.mvfrm
Library/Bee/artifacts/mvdfrm/UnityEditor.DeviceSimulatorModule.dll_0794CF7F172B3F3E.mvfrm
Library/Bee/artifacts/mvdfrm/UnityEditor.DiagnosticsModule.dll_511E197827D4720C.mvfrm
Library/Bee/artifacts/mvdfrm/UnityEditor.GraphViewModule.dll_B60AD6C906D3CC63.mvfrm
Library/Bee/artifacts/mvdfrm/UnityEditor.PackageManagerUIModule.dll_D59D85ED894D618F.mvfrm
Library/Bee/artifacts/mvdfrm/UnityEditor.QuickSearchModule.dll_DC2D9A8580AB6E65.mvfrm
Library/Bee/artifacts/mvdfrm/UnityEditor.SceneTemplateModule.dll_5ADD813BA0A39B86.mvfrm
Library/Bee/artifacts/mvdfrm/UnityEditor.TextCoreFontEngineModule.dll_1A6BB0AB63FC5A11.mvfrm
Library/Bee/artifacts/mvdfrm/UnityEditor.TextCoreTextEngineModule.dll_6253E71CF380132F.mvfrm
Library/Bee/artifacts/mvdfrm/UnityEditor.UIBuilderModule.dll_0A9383E5798C4597.mvfrm
Library/Bee/artifacts/mvdfrm/UnityEditor.UIElementsModule.dll_D1BC4D69A089CE4F.mvfrm
Library/Bee/artifacts/mvdfrm/UnityEditor.UIElementsSamplesModule.dll_FF4A0AD301B0CD0E.mvfrm
Library/Bee/artifacts/mvdfrm/UnityEditor.UIServiceModule.dll_4385954862C395B1.mvfrm
Library/Bee/artifacts/mvdfrm/UnityEditor.UnityConnectModule.dll_C8ECED0137041E29.mvfrm
Library/Bee/artifacts/mvdfrm/UnityEditor.dll_2F8E9AE02FFD3132.mvfrm
Library/Bee/artifacts/mvdfrm/UnityEngine.AIModule.dll_36C9C8AC679783E7.mvfrm
Library/Bee/artifacts/mvdfrm/UnityEngine.ARModule.dll_F03C8DAFC4B4E2B0.mvfrm
Library/Bee/artifacts/mvdfrm/UnityEngine.AccessibilityModule.dll_8D82ECD2A119C323.mvfrm
Library/Bee/artifacts/mvdfrm/UnityEngine.AndroidJNIModule.dll_5005363CE9A93D25.mvfrm
Library/Bee/artifacts/mvdfrm/UnityEngine.AnimationModule.dll_849052F1E130A109.mvfrm
Library/Bee/artifacts/mvdfrm/UnityEngine.AssetBundleModule.dll_2016CD76E3122357.mvfrm
Library/Bee/artifacts/mvdfrm/UnityEngine.AudioModule.dll_13204CA573B117BB.mvfrm
Library/Bee/artifacts/mvdfrm/UnityEngine.ClothModule.dll_7A08A9A04DCDF69F.mvfrm
Library/Bee/artifacts/mvdfrm/UnityEngine.ClusterInputModule.dll_48896216E88BF0EF.mvfrm
Library/Bee/artifacts/mvdfrm/UnityEngine.ClusterRendererModule.dll_0D4191F086E64CC2.mvfrm
Library/Bee/artifacts/mvdfrm/UnityEngine.CoreModule.dll_2439AF63ABC4E11E.mvfrm
Library/Bee/artifacts/mvdfrm/UnityEngine.CrashReportingModule.dll_9089AA53954C5376.mvfrm
Library/Bee/artifacts/mvdfrm/UnityEngine.DSPGraphModule.dll_8A15FD708C0C57DC.mvfrm
Library/Bee/artifacts/mvdfrm/UnityEngine.DirectorModule.dll_84C49C0719AB86BB.mvfrm
Library/Bee/artifacts/mvdfrm/UnityEngine.GIModule.dll_CF0611BA03466C01.mvfrm
Library/Bee/artifacts/mvdfrm/UnityEngine.GameCenterModule.dll_7A528057AFEA2E16.mvfrm
Library/Bee/artifacts/mvdfrm/UnityEngine.GridModule.dll_01AACB51C4197715.mvfrm
Library/Bee/artifacts/mvdfrm/UnityEngine.HotReloadModule.dll_05D910F7BC63BC8B.mvfrm
Library/Bee/artifacts/mvdfrm/UnityEngine.IMGUIModule.dll_4B7FEC0C39E2AB9C.mvfrm
Library/Bee/artifacts/mvdfrm/UnityEngine.ImageConversionModule.dll_79338FA1090B04B6.mvfrm
Library/Bee/artifacts/mvdfrm/UnityEngine.InputLegacyModule.dll_B15BE8957B03D948.mvfrm
Library/Bee/artifacts/mvdfrm/UnityEngine.InputModule.dll_79961455E9E93C5F.mvfrm
Library/Bee/artifacts/mvdfrm/UnityEngine.JSONSerializeModule.dll_ED9A760EA05523AD.mvfrm
Library/Bee/artifacts/mvdfrm/UnityEngine.LocalizationModule.dll_86D62C698007E3E8.mvfrm
Library/Bee/artifacts/mvdfrm/UnityEngine.NVIDIAModule.dll_52C49CCCCC66854A.mvfrm
Library/Bee/artifacts/mvdfrm/UnityEngine.ParticleSystemModule.dll_E39BF3A0035DDF04.mvfrm
Library/Bee/artifacts/mvdfrm/UnityEngine.PerformanceReportingModule.dll_4183113F38E913DD.mvfrm
Library/Bee/artifacts/mvdfrm/UnityEngine.Physics2DModule.dll_D13642E2822D989E.mvfrm
Library/Bee/artifacts/mvdfrm/UnityEngine.PhysicsModule.dll_EFCD09751D4DD7EC.mvfrm
Library/Bee/artifacts/mvdfrm/UnityEngine.ProfilerModule.dll_B70AD53DB3050DC8.mvfrm
Library/Bee/artifacts/mvdfrm/UnityEngine.RuntimeInitializeOnLoadManagerInitializerModule.dll_C5195C9E6EE94567.mvfrm
Library/Bee/artifacts/mvdfrm/UnityEngine.ScreenCaptureModule.dll_07822393B4C1500F.mvfrm
Library/Bee/artifacts/mvdfrm/UnityEngine.SharedInternalsModule.dll_FD44CE7680390006.mvfrm
Library/Bee/artifacts/mvdfrm/UnityEngine.SpriteMaskModule.dll_637EF2E7D159C390.mvfrm
Library/Bee/artifacts/mvdfrm/UnityEngine.SpriteShapeModule.dll_3977FAD198B45B61.mvfrm
Library/Bee/artifacts/mvdfrm/UnityEngine.StreamingModule.dll_3925404230B85847.mvfrm
Library/Bee/artifacts/mvdfrm/UnityEngine.SubstanceModule.dll_15D0548B7C0B5655.mvfrm
Library/Bee/artifacts/mvdfrm/UnityEngine.SubsystemsModule.dll_CE2C59499FA1ABA3.mvfrm
Library/Bee/artifacts/mvdfrm/UnityEngine.TLSModule.dll_912144E1E4DE4DC0.mvfrm
Library/Bee/artifacts/mvdfrm/UnityEngine.TerrainModule.dll_0A1384E3F30C20DA.mvfrm
Library/Bee/artifacts/mvdfrm/UnityEngine.TerrainPhysicsModule.dll_E4169C731CA0D991.mvfrm
Library/Bee/artifacts/mvdfrm/UnityEngine.TextCoreFontEngineModule.dll_98CB2BFE76FA18DC.mvfrm
Library/Bee/artifacts/mvdfrm/UnityEngine.TextCoreTextEngineModule.dll_E0B36270067DD1FA.mvfrm
Library/Bee/artifacts/mvdfrm/UnityEngine.TextRenderingModule.dll_30C1959E6BF8D004.mvfrm
Library/Bee/artifacts/mvdfrm/UnityEngine.TilemapModule.dll_A90FEC650AC901E3.mvfrm
Library/Bee/artifacts/mvdfrm/UnityEngine.UIElementsModule.dll_D26ABAB1A2CDE79A.mvfrm
Library/Bee/artifacts/mvdfrm/UnityEngine.UIElementsNativeModule.dll_20173A82FAC5D1B1.mvfrm
Library/Bee/artifacts/mvdfrm/UnityEngine.UIModule.dll_323D66D9C3DE8993.mvfrm
Library/Bee/artifacts/mvdfrm/UnityEngine.UNETModule.dll_B6DFF74CF8D3D697.mvfrm
Library/Bee/artifacts/mvdfrm/UnityEngine.UmbraModule.dll_8DF4F8BE00D7C32E.mvfrm
Library/Bee/artifacts/mvdfrm/UnityEngine.UnityAnalyticsModule.dll_033B6469AF853100.mvfrm
Library/Bee/artifacts/mvdfrm/UnityEngine.UnityConnectModule.dll_B64C7110318C1ED4.mvfrm
Library/Bee/artifacts/mvdfrm/UnityEngine.UnityCurlModule.dll_B7ACF423514492F6.mvfrm
Library/Bee/artifacts/mvdfrm/UnityEngine.UnityTestProtocolModule.dll_BB0CC0C55BAC2264.mvfrm
Library/Bee/artifacts/mvdfrm/UnityEngine.UnityWebRequestAssetBundleModule.dll_9184FFCB4AEC13D1.mvfrm
Library/Bee/artifacts/mvdfrm/UnityEngine.UnityWebRequestAudioModule.dll_B97F651DBF53DE75.mvfrm
Library/Bee/artifacts/mvdfrm/UnityEngine.UnityWebRequestModule.dll_8AD2974B13FF9F35.mvfrm
Library/Bee/artifacts/mvdfrm/UnityEngine.UnityWebRequestTextureModule.dll_4D63907A698304EA.mvfrm
Library/Bee/artifacts/mvdfrm/UnityEngine.UnityWebRequestWWWModule.dll_AB75A7CBF63D8E66.mvfrm
Library/Bee/artifacts/mvdfrm/UnityEngine.VFXModule.dll_11FFDD50BB4BB72D.mvfrm
Library/Bee/artifacts/mvdfrm/UnityEngine.VRModule.dll_850F8D5F65990F0B.mvfrm
Library/Bee/artifacts/mvdfrm/UnityEngine.VehiclesModule.dll_FC87958693D55656.mvfrm
Library/Bee/artifacts/mvdfrm/UnityEngine.VideoModule.dll_3829D11036433360.mvfrm
Library/Bee/artifacts/mvdfrm/UnityEngine.VirtualTexturingModule.dll_44A3EEF1D374523C.mvfrm
Library/Bee/artifacts/mvdfrm/UnityEngine.WindModule.dll_9A888A8C3CFB5F87.mvfrm
Library/Bee/artifacts/mvdfrm/UnityEngine.XRModule.dll_B7CE5063EED35C69.mvfrm
Library/Bee/artifacts/mvdfrm/UnityEngine.dll_6232E1B88E70BE17.mvfrm
Library/Bee/artifacts/mvdfrm/Unity.Android.Gradle.dll_5E4A2AD93FEFB95B.mvfrm
Library/Bee/artifacts/mvdfrm/Unity.Android.Types.dll_4AD1A5F2D2E78711.mvfrm
Library/Bee/artifacts/mvdfrm/UnityEditor.Android.Extensions.dll_77D7830A652F4C7B.mvfrm
Library/Bee/artifacts/mvdfrm/UnityEditor.LinuxStandalone.Extensions.dll_731DCD34D4B83FCD.mvfrm